<?xml version="1.0" encoding="UTF-8" standalone="no"?>
<svg width="39px" height="40px" viewBox="0 0 39 40" version="1.1" xmlns="http://www.w3.org/2000/svg" xmlns:xlink="http://www.w3.org/1999/xlink">
    <!-- Generator: Sketch 3.6.1 (26313) - http://www.bohemiancoding.com/sketch -->
    <title>icon_advancedsearch_white</title>
    <desc>Created with Sketch.</desc>
    <defs></defs>
    <g id="Pages" stroke="none" stroke-width="1" fill="none" fill-rule="evenodd">
        <g id="03-Sign-Up" transform="translate(-175.000000, -232.000000)" fill="#E0DFDF">
            <g id="Advance-custom-searxh" transform="translate(175.000000, 225.000000)">
                <g id="icon_advancedsearch_white" transform="translate(0.000000, 7.000000)">
                    <path d="M2.75864447,16.5518668 L10.1577887,16.5518668 C10.7403225,15.5463409 11.4396388,14.6175973 12.2483815,13.7932224 L4.13796671,13.7932224 C3.37612106,13.7932224 2.75864447,13.1757458 2.75864447,12.4139001 L2.75864447,4.13796671 C2.75864447,3.37612106 3.37612106,2.75864447 4.13796671,2.75864447 L12.4139001,2.75864447 C13.1757458,2.75864447 13.7932224,3.37612106 13.7932224,4.13796671 L13.7932224,12.4139001 C13.7932224,12.4286129 13.7849464,12.4414866 13.7844866,12.4561993 C14.6369078,11.8115961 15.5610537,11.2580281 16.5518668,10.8230818 L16.5518668,2.75864447 C16.5518668,1.23541295 15.3164539,0 13.7932224,0 L2.75864447,0 C1.23541295,0 0,1.23541295 0,2.75864447 L0,13.7932224 C2.45016849e-15,15.3164539 1.23541295,16.5518668 2.75864447,16.5518668 L2.75864447,16.5518668 Z M24.8278002,9.93617761 L24.8278002,4.13796671 C24.8278002,3.37612106 25.4448171,2.75864447 26.2071225,2.75864447 L34.4830559,2.75864447 C35.2453613,2.75864447 35.8623781,3.37612106 35.8623781,4.13796671 L35.8623781,12.4139001 C35.8623781,13.1757458 35.2453613,13.7932224 34.4830559,13.7932224 L31.9129188,13.7932224 C32.7225809,14.6175973 33.4214375,15.5463409 34.0048908,16.5518668 L35.8623781,16.5518668 C37.3856096,16.5518668 38.6210226,15.3164539 38.6210226,13.7932224 L38.6210226,2.75864447 C38.6210226,1.23541295 37.3856096,0 35.8623781,0 L24.8278002,0 C23.3045687,0 22.0691558,1.23541295 22.0691558,2.75864447 L22.0691558,9.66215226 C22.0732937,9.66215226 22.0774317,9.66169249 22.0811099,9.66169249 C23.0213479,9.66123271 23.9399765,9.75686572 24.8278002,9.93617761 L24.8278002,9.93617761 Z M13.7932224,34.4830559 C13.7932224,35.2453613 13.1757458,35.8623781 12.4139001,35.8623781 L4.13796671,35.8623781 C3.37612106,35.8623781 2.75864447,35.2453613 2.75864447,34.4830559 L2.75864447,26.2071225 C2.75864447,25.4448171 3.37612106,24.8278002 4.13796671,24.8278002 L8.36742845,24.8278002 C8.3223706,24.3726239 8.29800257,23.9119303 8.29800257,23.44434 C8.29800257,22.9795084 8.3223706,22.5215735 8.36742845,22.0691558 L2.75864447,22.0691558 C1.23541295,22.0691558 1.77635684e-15,23.3045687 1.77635684e-15,24.8278002 L1.77635684e-15,35.8623781 C1.77635684e-15,37.3856096 1.23541295,38.6210226 2.75864447,38.6210226 L13.7932224,38.6210226 C15.2507062,38.6210226 16.431406,37.4867599 16.5325563,36.0550235 C15.5527778,35.6237554 14.6378273,35.0757047 13.7932224,34.4384578 L13.7932224,34.4830559 L13.7932224,34.4830559 Z M38.2141225,37.5971057 L30.7965873,30.1795705 C32.2379791,28.3151866 33.105113,25.9836723 33.105113,23.4447998 C33.105113,17.3555519 28.1685187,12.4189576 22.078811,12.4189576 C15.9891034,12.4189576 11.0520493,17.3555519 11.0520493,23.44434 C11.0520493,29.5340477 15.9886436,34.470642 22.0783513,34.470642 C24.6135455,34.470642 26.9409219,33.6071863 28.8039265,32.1685532 L36.2233008,39.5879275 C36.7727308,40.1373575 37.6646925,40.1373575 38.2141225,39.5879275 C38.7635526,39.0384975 38.7640123,38.1469955 38.2141225,37.5971057 L38.2141225,37.5971057 Z M22.078811,31.7147562 C17.5118751,31.7147562 13.8088547,28.0117357 13.8088547,23.44434 C13.8088547,18.8778639 17.5118751,15.1753032 22.078811,15.1753032 C26.6466665,15.1753032 30.3492271,18.8783237 30.3492271,23.44434 C30.3492271,28.0121955 26.6462067,31.7147562 22.078811,31.7147562 L22.078811,31.7147562 Z" id="Shape"></path>
                </g>
            </g>
        </g>
    </g>
</svg>