<!-- Generator: Adobe Illustrator 17.0.0, SVG Export Plug-In  -->
<svg version="1.1"
	 xmlns="http://www.w3.org/2000/svg" xmlns:xlink="http://www.w3.org/1999/xlink" xmlns:a="http://ns.adobe.com/AdobeSVGViewerExtensions/3.0/"
	 x="0px" y="0px" width="103px" height="103px" viewBox="0 0 103 103" enable-background="new 0 0 103 103" xml:space="preserve">
<defs>
</defs>
<g>
	<path fill="#B8DE83" d="M51.5,0C23.057,0,0,23.057,0,51.5S23.057,103,51.5,103c28.443,0,51.5-23.057,51.5-51.5S79.943,0,51.5,0z"/>
	<polygon fill="#FFFFFF" points="75.916,24.141 42.883,57.174 27.084,41.374 16.241,52.217 42.883,78.859 86.759,34.983 	"/>
</g>
</svg>