<!-- Generator: Adobe Illustrator 17.0.0, SVG Export Plug-In  -->
<svg version="1.1"
	 xmlns="http://www.w3.org/2000/svg" xmlns:xlink="http://www.w3.org/1999/xlink" xmlns:a="http://ns.adobe.com/AdobeSVGViewerExtensions/3.0/"
	 x="0px" y="0px" width="330px" height="72px" viewBox="0 0 330 72" enable-background="new 0 0 330 72" xml:space="preserve">
<defs>
</defs>
<g>
	<polygon fill-rule="evenodd" clip-rule="evenodd" fill="#F0A421" points="0,0 300,0 270,72 0,72 0,0 	"/>
	<polygon fill-rule="evenodd" clip-rule="evenodd" fill="#202B53" points="300,0 330,54 270,72 300,0 	"/>
</g>
</svg>